%YAML 1.1
%TAG !u! tag:unity3d.com,2011:
--- !u!1 &5937744833153574634
GameObject:
  m_ObjectHideFlags: 0
  m_CorrespondingSourceObject: {fileID: 0}
  m_PrefabInstance: {fileID: 0}
  m_PrefabAsset: {fileID: 0}
  serializedVersion: 6
  m_Component:
  - component: {fileID: 6196902425440406450}
  - component: {fileID: 1642473944121464796}
  m_Layer: 0
  m_Name: RoadModel
  m_TagString: Untagged
  m_Icon: {fileID: 0}
  m_NavMeshLayer: 0
  m_StaticEditorFlags: 0
  m_IsActive: 1
--- !u!4 &6196902425440406450
Transform:
  m_ObjectHideFlags: 0
  m_CorrespondingSourceObject: {fileID: 0}
  m_PrefabInstance: {fileID: 0}
  m_PrefabAsset: {fileID: 0}
  m_GameObject: {fileID: 5937744833153574634}
  m_LocalRotation: {x: -0, y: -0, z: -0, w: 1}
  m_LocalPosition: {x: 0, y: 0, z: 0}
  m_LocalScale: {x: 1, y: 1, z: 1}
  m_Children:
  - {fileID: 8813859792654191536}
  m_Father: {fileID: 0}
  m_RootOrder: 0
  m_LocalEulerAnglesHint: {x: 0, y: 0, z: 0}
--- !u!111 &1642473944121464796
Animation:
  m_ObjectHideFlags: 0
  m_CorrespondingSourceObject: {fileID: 0}
  m_PrefabInstance: {fileID: 0}
  m_PrefabAsset: {fileID: 0}
  m_GameObject: {fileID: 5937744833153574634}
  m_Enabled: 1
  serializedVersion: 3
  m_Animation: {fileID: 7400000, guid: e9ea4da36076d4640b2a37c188b25a17, type: 2}
  m_Animations:
  - {fileID: 7400000, guid: e9ea4da36076d4640b2a37c188b25a17, type: 2}
  m_WrapMode: 0
  m_PlayAutomatically: 1
  m_AnimatePhysics: 0
  m_CullingType: 0
--- !u!1001 &8813859792654586160
PrefabInstance:
  m_ObjectHideFlags: 0
  serializedVersion: 2
  m_Modification:
    m_TransformParent: {fileID: 6196902425440406450}
    m_Modifications:
    - target: {fileID: 100000, guid: 6918c6d31df04c94c9af25f55f4a18af, type: 3}
      propertyPath: m_Name
      value: Street_Straight
      objectReference: {fileID: 0}
    - target: {fileID: 400000, guid: 6918c6d31df04c94c9af25f55f4a18af, type: 3}
      propertyPath: m_LocalPosition.x
      value: -0
      objectReference: {fileID: 0}
    - target: {fileID: 400000, guid: 6918c6d31df04c94c9af25f55f4a18af, type: 3}
      propertyPath: m_LocalPosition.y
      value: -0.5
      objectReference: {fileID: 0}
    - target: {fileID: 400000, guid: 6918c6d31df04c94c9af25f55f4a18af, type: 3}
      propertyPath: m_LocalPosition.z
      value: 0
      objectReference: {fileID: 0}
    - target: {fileID: 400000, guid: 6918c6d31df04c94c9af25f55f4a18af, type: 3}
      propertyPath: m_LocalRotation.x
      value: -0.5
      objectReference: {fileID: 0}
    - target: {fileID: 400000, guid: 6918c6d31df04c94c9af25f55f4a18af, type: 3}
      propertyPath: m_LocalRotation.y
      value: 0.5
      objectReference: {fileID: 0}
    - target: {fileID: 400000, guid: 6918c6d31df04c94c9af25f55f4a18af, type: 3}
      propertyPath: m_LocalRotation.z
      value: 0.5
      objectReference: {fileID: 0}
    - target: {fileID: 400000, guid: 6918c6d31df04c94c9af25f55f4a18af, type: 3}
      propertyPath: m_LocalRotation.w
      value: 0.5
      objectReference: {fileID: 0}
    - target: {fileID: 400000, guid: 6918c6d31df04c94c9af25f55f4a18af, type: 3}
      propertyPath: m_RootOrder
      value: 0
      objectReference: {fileID: 0}
    - target: {fileID: 400000, guid: 6918c6d31df04c94c9af25f55f4a18af, type: 3}
      propertyPath: m_LocalEulerAnglesHint.x
      value: -90
      objectReference: {fileID: 0}
    - target: {fileID: 400000, guid: 6918c6d31df04c94c9af25f55f4a18af, type: 3}
      propertyPath: m_LocalEulerAnglesHint.y
      value: 90
      objectReference: {fileID: 0}
    - target: {fileID: 400000, guid: 6918c6d31df04c94c9af25f55f4a18af, type: 3}
      propertyPath: m_LocalEulerAnglesHint.z
      value: 0
      objectReference: {fileID: 0}
    - target: {fileID: 400000, guid: 6918c6d31df04c94c9af25f55f4a18af, type: 3}
      propertyPath: m_LocalScale.x
      value: 250
      objectReference: {fileID: 0}
    - target: {fileID: 400000, guid: 6918c6d31df04c94c9af25f55f4a18af, type: 3}
      propertyPath: m_LocalScale.y
      value: 250
      objectReference: {fileID: 0}
    - target: {fileID: 400000, guid: 6918c6d31df04c94c9af25f55f4a18af, type: 3}
      propertyPath: m_LocalScale.z
      value: 250
      objectReference: {fileID: 0}
    - target: {fileID: 2300000, guid: 6918c6d31df04c94c9af25f55f4a18af, type: 3}
      propertyPath: m_LightProbeUsage
      value: 0
      objectReference: {fileID: 0}
    - target: {fileID: 2300000, guid: 6918c6d31df04c94c9af25f55f4a18af, type: 3}
      propertyPath: m_ReflectionProbeUsage
      value: 0
      objectReference: {fileID: 0}
    - target: {fileID: 2300000, guid: 6918c6d31df04c94c9af25f55f4a18af, type: 3}
      propertyPath: m_CastShadows
      value: 0
      objectReference: {fileID: 0}
    - target: {fileID: 2300000, guid: 6918c6d31df04c94c9af25f55f4a18af, type: 3}
      propertyPath: m_Materials.Array.data[0]
      value: 
      objectReference: {fileID: 2100000, guid: 294e4b12491203c4681bdf1569391cc5, type: 2}
    m_RemovedComponents: []
  m_SourcePrefab: {fileID: 100100000, guid: 6918c6d31df04c94c9af25f55f4a18af, type: 3}
--- !u!4 &8813859792654191536 stripped
Transform:
  m_CorrespondingSourceObject: {fileID: 400000, guid: 6918c6d31df04c94c9af25f55f4a18af,
    type: 3}
  m_PrefabInstance: {fileID: 8813859792654586160}
  m_PrefabAsset: {fileID: 0}
